{
  "files": [
    {
      "id": "973902b9-4f3f-4b63-aad7-469f492b276c",
      "submitterId": "b91887ab-5d10-4aa2-bed0-3a791d1eafa5",
      "access": "controlled",
      "acl": ["phs000748"],
      "createdDatetime": "2021-12-10T04:49:26.838796-06:00",
      "updatedDatetime": "2024-07-30T18:09:54.338329-05:00",
      "data_category": "Transcriptome Profiling",
      "data_format": "TSV",
      "dataRelease": "32.0 - 43.0",
      "data_type": "Splice Junction Quantification",
      "file_id": "973902b9-4f3f-4b63-aad7-469f492b276c",
      "file_name": "8fd39e5b-a9d3-429b-81a0-9432b3c2da77.rna_seq.star_splice_junctions.tsv.gz",
      "file_size": 2847685,
      "md5sum": "b3",
      "platform": "Illumina",
      "state": "released",
      "fileType": "gene_expression",
      "version": "2",
      "experimental_strategy": "RNA-Seq"
    },
    {
      "id": "55ef6bae-dc76-4645-abde-f49c65ea7e98",
      "submitterId": "3c951011-5588-4b7d-a9b2-1914802a24aa",
      "access": "open",
      "acl": ["open"],
      "createdDatetime": "2021-12-10T04:49:25.417714-06:00",
      "updatedDatetime": "2024-07-30T20:44:44.625392-05:00",
      "data_category": "Transcriptome Profiling",
      "data_format": "TSV",
      "dataRelease": "32.0 - 43.0",
      "data_type": "Gene Expression Quantification",
      "file_id": "55ef6bae-dc76-4645-abde-f49c65ea7e98",
      "file_name": "8fd39e5b-a9d3-429b-81a0-9432b3c2da77.rna_seq.augmented_star_gene_counts.tsv",
      "file_size": 4202181,
      "md5sum": "947",
      "platform": "Illumina",
      "state": "released",
      "fileType": "gene_expression",
      "version": "2",
      "experimental_strategy": "RNA-Seq"
    },
    {
      "id": "895acef7-81ec-4809-a5f0-51c53d12b4bf",
      "submitterId": "71713866-6f0e-4584-8e24-94f767e91ef0",
      "access": "controlled",
      "acl": ["phs000748"],
      "createdDatetime": "2021-12-10T02:48:46.229034-06:00",
      "updatedDatetime": "2023-07-12T10:16:27.606769-05:00",
      "data_category": "Sequencing Reads",
      "data_format": "BAM",
      "dataRelease": "32.0 - 43.0",
      "data_type": "Aligned Reads",
      "file_id": "895acef7-81ec-4809-a5f0-51c53d12b4bf",
      "file_name": "8fd39e5b-a9d3-429b-81a0-9432b3c2da77.rna_seq.transcriptome.gdc_realn.bam",
      "file_size": 15589050703,
      "md5sum": "2b608",
      "platform": "Illumina",
      "state": "released",
      "fileType": "aligned_reads",
      "version": "2",
      "experimental_strategy": "RNA-Seq"
    },
    {
      "id": "75b231e3-3654-4d2c-affe-a49447d19c08",
      "submitterId": "e0045700-ba7d-499c-9dc8-a65cfe7400ce",
      "access": "controlled",
      "acl": ["phs000748"],
      "createdDatetime": "2022-06-10T17:49:42.398135-05:00",
      "updatedDatetime": "2024-07-29T22:42:53.980116-05:00",
      "data_category": "Structural Variation",
      "data_format": "TSV",
      "dataRelease": "34.0 - 43.0",
      "data_type": "Transcript Fusion",
      "file_id": "75b231e3-3654-4d2c-affe-a49447d19c08",
      "file_name": "MMRF-COMMPASS.b88ce096-ec55-47e1-8e00-541a49169c30.star_fusion.rna_fusion.tsv",
      "file_size": 12748,
      "md5sum": "46da",
      "platform": "Illumina",
      "state": "released",
      "fileType": "structural_variation",
      "version": "1",
      "experimental_strategy": "RNA-Seq"
    },
    {
      "id": "5e45ed10-ead7-48e6-8f87-5a3a89a83620",
      "submitterId": "fa353410-7b56-4527-8a13-22e4eb5d0a68",
      "access": "controlled",
      "acl": ["phs000748"],
      "createdDatetime": "2022-06-10T17:49:54.115512-05:00",
      "updatedDatetime": "2024-07-29T22:35:44.438330-05:00",
      "data_category": "Structural Variation",
      "data_format": "BEDPE",
      "dataRelease": "34.0 - 43.0",
      "data_type": "Transcript Fusion",
      "file_id": "5e45ed10-ead7-48e6-8f87-5a3a89a83620",
      "file_name": "MMRF-COMMPASS.5569ebfa-9df5-4f27-be00-b0be6660479e.arriba.rna_fusion.bedpe",
      "file_size": 6088,
      "md5sum": "4114",
      "platform": "Illumina",
      "state": "released",
      "fileType": "structural_variation",
      "version": "1",
      "experimental_strategy": "RNA-Seq"
    },
    {
      "id": "9dfd37a9-7291-4cac-b3d1-2c266610b159",
      "submitterId": "0e67a9db-ffe2-4db1-909f-fad54d461283",
      "access": "controlled",
      "acl": ["phs000748"],
      "createdDatetime": "2022-06-10T17:05:03.617920-05:00",
      "updatedDatetime": "2024-07-29T22:54:57.460223-05:00",
      "data_category": "Structural Variation",
      "data_format": "TSV",
      "dataRelease": "34.0 - 43.0",
      "data_type": "Transcript Fusion",
      "file_id": "9dfd37a9-7291-4cac-b3d1-2c266610b159",
      "file_name": "MMRF-COMMPASS.5569ebfa-9df5-4f27-be00-b0be6660479e.arriba.rna_fusion.tsv",
      "file_size": 13461,
      "md5sum": "660b",
      "platform": "Illumina",
      "state": "released",
      "fileType": "structural_variation",
      "version": "1",
      "experimental_strategy": "RNA-Seq"
    },
    {
      "id": "85fda953-0307-4029-963f-d9f63e5e6eee",
      "submitterId": "f47c49c0-61c6-4977-9c71-5d47f0b53e5e",
      "access": "controlled",
      "acl": ["phs000748"],
      "createdDatetime": "2021-12-10T02:48:42.118093-06:00",
      "updatedDatetime": "2023-07-12T10:16:27.606769-05:00",
      "data_category": "Sequencing Reads",
      "data_format": "BAM",
      "dataRelease": "32.0 - 43.0",
      "data_type": "Aligned Reads",
      "file_id": "85fda953-0307-4029-963f-d9f63e5e6eee",
      "file_name": "8fd39e5b-a9d3-429b-81a0-9432b3c2da77.rna_seq.chimeric.gdc_realn.bam",
      "file_size": 118521170,
      "md5sum": "3bac",
      "platform": "Illumina",
      "state": "released",
      "fileType": "aligned_reads",
      "version": "2",
      "experimental_strategy": "RNA-Seq"
    },
    {
      "id": "d3badb94-a04b-43ba-bcb5-dcd95a7a4243",
      "submitterId": "be8ae899-bf04-4260-baa7-915823bdfdbb",
      "access": "controlled",
      "acl": ["phs000748"],
      "createdDatetime": "2022-06-10T17:47:57.323584-05:00",
      "updatedDatetime": "2024-07-29T23:09:57.110948-05:00",
      "data_category": "Structural Variation",
      "data_format": "BEDPE",
      "dataRelease": "34.0 - 43.0",
      "data_type": "Transcript Fusion",
      "file_id": "d3badb94-a04b-43ba-bcb5-dcd95a7a4243",
      "file_name": "MMRF-COMMPASS.b88ce096-ec55-47e1-8e00-541a49169c30.star_fusion.rna_fusion.bedpe",
      "file_size": 2877,
      "md5sum": "1432e680",
      "platform": "Illumina",
      "state": "released",
      "fileType": "structural_variation",
      "version": "1",
      "experimental_strategy": "RNA-Seq"
    },
    {
      "id": "7f88347d-c76b-4ef9-b09d-86284d206a18",
      "submitterId": "c92cb95c-5ce6-4de6-8e89-b123d664b17d",
      "access": "controlled",
      "acl": ["phs000748"],
      "createdDatetime": "2021-12-10T02:48:44.070409-06:00",
      "updatedDatetime": "2023-07-12T10:16:27.606769-05:00",
      "data_category": "Sequencing Reads",
      "data_format": "BAM",
      "dataRelease": "32.0 - 43.0",
      "data_type": "Aligned Reads",
      "file_id": "7f88347d-c76b-4ef9-b09d-86284d206a18",
      "file_name": "8fd39e5b-a9d3-429b-81a0-9432b3c2da77.rna_seq.genomic.gdc_realn.bam",
      "file_size": 15128551271,
      "md5sum": "7cf",
      "platform": "Illumina",
      "state": "released",
      "fileType": "aligned_reads",
      "version": "2",
      "experimental_strategy": "RNA-Seq",
      "total_reads": "192,900,348",
      "average_insert_size": 1867,
      "average_read_length": 83,
      "average_base_quality": 36,
      "pairs_on_diff_chr": "50,473",
      "proportion_reads_mapped": 0.941626652741964,
      "proportion_reads_duplicated": 0,
      "proportion_base_mismatch": 0.009916446
    },
    {
      "id": "aca76285-b66e-4852-89e7-b6ca3844e739",
      "submitterId": "a1881ee0-4845-4b8c-8918-e0d3079e306e",
      "access": "controlled",
      "acl": ["phs000748"],
      "createdDatetime": "2019-02-18T15:23:17.698730-06:00",
      "updatedDatetime": "2023-10-16T13:02:44.964195-05:00",
      "data_category": "Sequencing Reads",
      "data_format": "BAM",
      "dataRelease": "18.0 - 43.0",
      "data_type": "Aligned Reads",
      "file_id": "aca76285-b66e-4852-89e7-b6ca3844e739",
      "file_name": "0744d9af-a724-49f8-8d84-1f52e2e540c5_wgs_gdc_realn.bam",
      "file_size": 55786682715,
      "md5sum": "dea95",
      "platform": "Illumina",
      "state": "released",
      "fileType": "aligned_reads",
      "version": "1",
      "experimental_strategy": "WGS",
      "total_reads": "343,182,952",
      "average_insert_size": 891,
      "average_read_length": 86,
      "average_base_quality": 31,
      "mean_coverage": 8.25952,
      "pairs_on_diff_chr": "4,380,107",
      "contamination": 0,
      "contamination_error": 0,
      "proportion_reads_mapped": 0.9932777925402309,
      "proportion_reads_duplicated": 0.05007288940156911,
      "proportion_base_mismatch": 0.004756379,
      "proportion_targets_no_coverage": null,
      "proportion_coverage_10x": 0.363789,
      "proportion_coverage_30x": 0.000848
    }
  ],
  "pagination": {
    "count": 10,
    "total": 33,
    "size": 10,
    "from": 0,
    "sort": "None",
    "page": 1,
    "pages": 4
  }
}
